20

18 20
2
r 10 1 e
h 5 0 w
98 12

13 2
7
t 2 1 n
f 3 1 e
t 2 1 s
h 7 0 w
t 0 1 s
f 4 0 w
t 3 1 e
79 17

7 15
11
t 0 14 s
t 5 5 n
h 5 11 e
f 0 10 e
r 0 0 w
h 6 14 e
h 5 11 w
h 5 1 s
t 4 1 s
f 5 7 e
h 5 5 n
1 19

10 6
11
h 5 5 n
r 4 3 s
r 6 4 e
r 3 0 n
f 8 1 w
t 5 2 e
t 8 1 w
t 7 4 w
t 9 4 e
h 2 2 w
f 7 0 s
10 16

4 3
11
h 1 1 e
f 2 2 s
f 2 0 e
h 3 0 w
f 1 0 n
r 2 2 w
f 3 0 n
f 2 1 n
r 2 0 n
h 0 0 s
f 1 1 n
15 14

18 6
1
r 2 0 e
95 4

18 16
1
h 16 0 w
63 4

10 11
6
r 9 9 s
r 8 3 n
h 7 5 s
t 3 1 e
r 8 3 w
h 4 8 e
23 11

17 13
15
h 15 1 e
h 15 11 e
f 1 5 s
h 2 2 e
h 14 8 s
f 0 4 s
t 7 3 e
f 12 8 n
f 0 4 e
t 9 9 s
t 15 11 w
h 5 0 w
f 16 2 w
h 11 6 s
r 11 5 n
9 2

15 15
9
f 10 2 n
f 1 8 e
h 9 14 s
t 4 9 n
r 8 0 w
h 2 11 e
t 2 5 e
h 14 0 s
f 13 12 s
50 17

19 13
6
r 0 7 n
h 12 10 n
f 15 11 n
h 7 11 e
f 16 2 w
t 7 9 s
99 16

6 6
9
f 3 4 e
t 4 0 w
r 4 4 s
h 1 2 w
r 4 0 w
h 2 2 w
r 3 3 s
f 2 3 s
f 3 3 n
9 3

13 6
6
t 0 5 n
f 2 0 e
t 8 2 w
h 12 5 w
f 2 1 e
t 10 4 e
5 15

7 17
2
f 4 0 s
r 1 1 e
69 16

11 16
10
h 6 9 n
t 0 5 e
h 0 10 e
r 1 4 w
h 7 3 n
h 7 0 n
h 0 1 n
r 3 6 n
t 6 5 s
f 7 15 e
63 2

7 13
9
r 3 6 n
f 3 11 w
f 1 12 n
f 1 10 e
h 0 5 w
t 3 1 n
f 6 7 w
r 1 5 s
t 5 0 s
66 17

4 4
10
r 0 0 n
r 2 0 n
r 2 2 n
h 0 2 e
f 3 1 e
f 0 3 s
r 0 2 e
r 3 0 s
r 0 3 e
f 3 2 e
39 2

1 7
11
h 0 2 e
h 0 5 s
f 0 3 w
h 0 0 n
r 0 3 s
t 0 1 n
f 0 1 e
h 0 5 s
h 0 2 s
t 0 2 n
t 0 3 n
8 12

20 6
12
h 14 0 s
f 17 3 w
h 17 5 w
h 19 3 w
t 7 5 w
h 19 5 e
h 9 0 e
f 8 0 n
r 4 1 n
t 18 4 n
r 2 2 n
f 17 2 e
42 16

17 18
3
r 1 1 s
t 1 8 w
t 8 10 n
14 10
